TrigSignatureMoniMT                                INFO HLT_e3_etcut                  20        20        18        17        17        
TrigSignatureMoniMT                                INFO HLT_e3_etcut decisions                            54        342       
TrigSignatureMoniMT                                INFO HLT_e3_etcut1step             20        20        18        0         18        
TrigSignatureMoniMT                                INFO HLT_e3_etcut1step decisions                       54        0         
TrigSignatureMoniMT                                INFO HLT_e5_etcut                  20        20        17        16        16        
TrigSignatureMoniMT                                INFO HLT_e5_etcut decisions                            50        329       
TrigSignatureMoniMT                                INFO HLT_e7_etcut                  20        20        15        14        14        
TrigSignatureMoniMT                                INFO HLT_e7_etcut decisions                            36        264       
